{
    "areaid": 1,
    "upstream": "http://localhost:1337/",
    "pointdef": "runtime-deps/points.json",
    "updatedelay": 3,
    "learn_path": "runtime-deps/learn",
    "imgprov": {
        "modpath": "runtime-deps/imgproviders/fromfolder.py",
        "modattr": {
            "folder": "runtime-deps/testimages"
        }
    }
}
